[
  {
    "page": 1,
    "rows": 20,
    "totalItems": 3153,
    "totalPages": 158
  },
  {
    "page": 2,
    "rows": 40,
    "totalItems": 3153,
    "totalPages": 158
  },
  {
    "page": 3,
    "rows": 60,
    "totalItems": 3153,
    "totalPages": 158
  },
  {
    "page": 4,
    "rows": 80,
    "totalItems": 3153,
    "totalPages": 158
  },
  {
    "page": 5,
    "rows": 100,
    "totalItems": 3153,
    "totalPages": 158
  },
  {
    "page": 6,
    "rows": 120,
    "totalItems": 3153,
    "totalPages": 158
  },
  {
    "page": 7,
    "rows": 140,
    "totalItems": 3153,
    "totalPages": 158
  },
  {
    "page": 8,
    "rows": 160,
    "totalItems": 3153,
    "totalPages": 158
  },
  {
    "page": 9,
    "rows": 180,
    "totalItems": 3153,
    "totalPages": 158
  },
  {
    "page": 10,
    "rows": 200,
    "totalItems": 3153,
    "totalPages": 158
  },
  {
    "page": 11,
    "rows": 220,
    "totalItems": 3153,
    "totalPages": 158
  },
  {
    "page": 12,
    "rows": 240,
    "totalItems": 3153,
    "totalPages": 158
  },
  {
    "page": 13,
    "rows": 260,
    "totalItems": 3153,
    "totalPages": 158
  },
  {
    "page": 14,
    "rows": 280,
    "totalItems": 3153,
    "totalPages": 158
  },
  {
    "page": 15,
    "rows": 300,
    "totalItems": 3153,
    "totalPages": 158
  },
  {
    "page": 16,
    "rows": 320,
    "totalItems": 3153,
    "totalPages": 158
  },
  {
    "page": 17,
    "rows": 340,
    "totalItems": 3153,
    "totalPages": 158
  },
  {
    "page": 18,
    "rows": 360,
    "totalItems": 3153,
    "totalPages": 158
  },
  {
    "page": 19,
    "rows": 380,
    "totalItems": 3153,
    "totalPages": 158
  },
  {
    "page": 20,
    "rows": 400,
    "totalItems": 3153,
    "totalPages": 158
  },
  {
    "page": 21,
    "rows": 420,
    "totalItems": 3153,
    "totalPages": 158
  },
  {
    "page": 22,
    "rows": 440,
    "totalItems": 3153,
    "totalPages": 158
  },
  {
    "page": 23,
    "rows": 460,
    "totalItems": 3153,
    "totalPages": 158
  },
  {
    "page": 24,
    "rows": 480,
    "totalItems": 3153,
    "totalPages": 158
  },
  {
    "page": 25,
    "rows": 500,
    "totalItems": 3153,
    "totalPages": 158
  },
  {
    "page": 26,
    "rows": 520,
    "totalItems": 3153,
    "totalPages": 158
  },
  {
    "page": 27,
    "rows": 540,
    "totalItems": 3153,
    "totalPages": 158
  },
  {
    "page": 28,
    "rows": 560,
    "totalItems": 3153,
    "totalPages": 158
  },
  {
    "page": 29,
    "rows": 580,
    "totalItems": 3153,
    "totalPages": 158
  },
  {
    "page": 30,
    "rows": 600,
    "totalItems": 3153,
    "totalPages": 158
  },
  {
    "page": 31,
    "rows": 620,
    "totalItems": 3153,
    "totalPages": 158
  },
  {
    "page": 32,
    "rows": 640,
    "totalItems": 3153,
    "totalPages": 158
  },
  {
    "page": 33,
    "rows": 660,
    "totalItems": 3153,
    "totalPages": 158
  },
  {
    "page": 34,
    "rows": 680,
    "totalItems": 3153,
    "totalPages": 158
  },
  {
    "page": 35,
    "rows": 700,
    "totalItems": 3153,
    "totalPages": 158
  },
  {
    "page": 36,
    "rows": 720,
    "totalItems": 3153,
    "totalPages": 158
  },
  {
    "page": 37,
    "rows": 740,
    "totalItems": 3153,
    "totalPages": 158
  },
  {
    "page": 38,
    "rows": 760,
    "totalItems": 3153,
    "totalPages": 158
  },
  {
    "page": 39,
    "rows": 780,
    "totalItems": 3153,
    "totalPages": 158
  },
  {
    "page": 40,
    "rows": 800,
    "totalItems": 3153,
    "totalPages": 158
  },
  {
    "page": 41,
    "rows": 820,
    "totalItems": 3153,
    "totalPages": 158
  },
  {
    "page": 42,
    "rows": 840,
    "totalItems": 3153,
    "totalPages": 158
  },
  {
    "page": 43,
    "rows": 860,
    "totalItems": 3153,
    "totalPages": 158
  },
  {
    "page": 44,
    "rows": 880,
    "totalItems": 3153,
    "totalPages": 158
  },
  {
    "page": 45,
    "rows": 900,
    "totalItems": 3153,
    "totalPages": 158
  },
  {
    "page": 46,
    "rows": 920,
    "totalItems": 3153,
    "totalPages": 158
  },
  {
    "page": 47,
    "rows": 940,
    "totalItems": 3153,
    "totalPages": 158
  },
  {
    "page": 48,
    "rows": 960,
    "totalItems": 3153,
    "totalPages": 158
  },
  {
    "page": 49,
    "rows": 980,
    "totalItems": 3153,
    "totalPages": 158
  },
  {
    "page": 50,
    "rows": 1000,
    "totalItems": 3153,
    "totalPages": 158
  },
  {
    "page": 51,
    "rows": 1020,
    "totalItems": 3153,
    "totalPages": 158
  },
  {
    "page": 52,
    "rows": 1040,
    "totalItems": 3153,
    "totalPages": 158
  },
  {
    "page": 53,
    "rows": 1060,
    "totalItems": 3153,
    "totalPages": 158
  },
  {
    "page": 54,
    "rows": 1080,
    "totalItems": 3153,
    "totalPages": 158
  },
  {
    "page": 55,
    "rows": 1100,
    "totalItems": 3153,
    "totalPages": 158
  },
  {
    "page": 56,
    "rows": 1120,
    "totalItems": 3153,
    "totalPages": 158
  },
  {
    "page": 57,
    "rows": 1140,
    "totalItems": 3153,
    "totalPages": 158
  },
  {
    "page": 58,
    "rows": 1160,
    "totalItems": 3153,
    "totalPages": 158
  },
  {
    "page": 59,
    "rows": 1180,
    "totalItems": 3153,
    "totalPages": 158
  },
  {
    "page": 60,
    "rows": 1200,
    "totalItems": 3153,
    "totalPages": 158
  },
  {
    "page": 61,
    "rows": 1220,
    "totalItems": 3153,
    "totalPages": 158
  },
  {
    "page": 62,
    "rows": 1240,
    "totalItems": 3153,
    "totalPages": 158
  },
  {
    "page": 63,
    "rows": 1260,
    "totalItems": 3153,
    "totalPages": 158
  },
  {
    "page": 64,
    "rows": 1280,
    "totalItems": 3153,
    "totalPages": 158
  },
  {
    "page": 65,
    "rows": 1300,
    "totalItems": 3153,
    "totalPages": 158
  },
  {
    "page": 66,
    "rows": 1320,
    "totalItems": 3153,
    "totalPages": 158
  },
  {
    "page": 67,
    "rows": 1340,
    "totalItems": 3153,
    "totalPages": 158
  },
  {
    "page": 68,
    "rows": 1360,
    "totalItems": 3153,
    "totalPages": 158
  },
  {
    "page": 69,
    "rows": 1380,
    "totalItems": 3153,
    "totalPages": 158
  },
  {
    "page": 70,
    "rows": 1400,
    "totalItems": 3153,
    "totalPages": 158
  },
  {
    "page": 71,
    "rows": 1420,
    "totalItems": 3153,
    "totalPages": 158
  },
  {
    "page": 72,
    "rows": 1440,
    "totalItems": 3153,
    "totalPages": 158
  },
  {
    "page": 73,
    "rows": 1460,
    "totalItems": 3153,
    "totalPages": 158
  },
  {
    "page": 74,
    "rows": 1480,
    "totalItems": 3153,
    "totalPages": 158
  },
  {
    "page": 75,
    "rows": 1500,
    "totalItems": 3153,
    "totalPages": 158
  },
  {
    "page": 76,
    "rows": 1520,
    "totalItems": 3153,
    "totalPages": 158
  },
  {
    "page": 77,
    "rows": 1540,
    "totalItems": 3153,
    "totalPages": 158
  },
  {
    "page": 78,
    "rows": 1560,
    "totalItems": 3153,
    "totalPages": 158
  },
  {
    "page": 79,
    "rows": 1580,
    "totalItems": 3153,
    "totalPages": 158
  },
  {
    "page": 80,
    "rows": 1600,
    "totalItems": 3153,
    "totalPages": 158
  },
  {
    "page": 81,
    "rows": 1620,
    "totalItems": 3153,
    "totalPages": 158
  },
  {
    "page": 82,
    "rows": 1640,
    "totalItems": 3153,
    "totalPages": 158
  },
  {
    "page": 83,
    "rows": 1660,
    "totalItems": 3153,
    "totalPages": 158
  },
  {
    "page": 84,
    "rows": 1680,
    "totalItems": 3153,
    "totalPages": 158
  },
  {
    "page": 85,
    "rows": 1700,
    "totalItems": 3153,
    "totalPages": 158
  },
  {
    "page": 86,
    "rows": 1720,
    "totalItems": 3153,
    "totalPages": 158
  },
  {
    "page": 87,
    "rows": 1740,
    "totalItems": 3153,
    "totalPages": 158
  },
  {
    "page": 88,
    "rows": 1760,
    "totalItems": 3153,
    "totalPages": 158
  },
  {
    "page": 89,
    "rows": 1780,
    "totalItems": 3153,
    "totalPages": 158
  },
  {
    "page": 90,
    "rows": 1800,
    "totalItems": 3153,
    "totalPages": 158
  },
  {
    "page": 91,
    "rows": 1820,
    "totalItems": 3153,
    "totalPages": 158
  },
  {
    "page": 92,
    "rows": 1840,
    "totalItems": 3153,
    "totalPages": 158
  },
  {
    "page": 93,
    "rows": 1860,
    "totalItems": 3153,
    "totalPages": 158
  },
  {
    "page": 94,
    "rows": 1880,
    "totalItems": 3153,
    "totalPages": 158
  },
  {
    "page": 95,
    "rows": 1900,
    "totalItems": 3153,
    "totalPages": 158
  },
  {
    "page": 96,
    "rows": 1920,
    "totalItems": 3153,
    "totalPages": 158
  },
  {
    "page": 97,
    "rows": 1940,
    "totalItems": 3153,
    "totalPages": 158
  },
  {
    "page": 98,
    "rows": 1960,
    "totalItems": 3153,
    "totalPages": 158
  },
  {
    "page": 99,
    "rows": 1980,
    "totalItems": 3153,
    "totalPages": 158
  },
  {
    "page": 100,
    "rows": 2000,
    "totalItems": 3153,
    "totalPages": 158
  },
  {
    "page": 101,
    "rows": 2020,
    "totalItems": 3153,
    "totalPages": 158
  },
  {
    "page": 102,
    "rows": 2040,
    "totalItems": 3153,
    "totalPages": 158
  },
  {
    "page": 103,
    "rows": 2060,
    "totalItems": 3153,
    "totalPages": 158
  },
  {
    "page": 104,
    "rows": 2080,
    "totalItems": 3153,
    "totalPages": 158
  },
  {
    "page": 105,
    "rows": 2100,
    "totalItems": 3153,
    "totalPages": 158
  },
  {
    "page": 106,
    "rows": 2120,
    "totalItems": 3153,
    "totalPages": 158
  },
  {
    "page": 107,
    "rows": 2140,
    "totalItems": 3153,
    "totalPages": 158
  },
  {
    "page": 108,
    "rows": 2160,
    "totalItems": 3153,
    "totalPages": 158
  },
  {
    "page": 109,
    "rows": 2180,
    "totalItems": 3153,
    "totalPages": 158
  },
  {
    "page": 110,
    "rows": 2200,
    "totalItems": 3153,
    "totalPages": 158
  },
  {
    "page": 111,
    "rows": 2220,
    "totalItems": 3153,
    "totalPages": 158
  },
  {
    "page": 112,
    "rows": 2240,
    "totalItems": 3153,
    "totalPages": 158
  },
  {
    "page": 113,
    "rows": 2260,
    "totalItems": 3153,
    "totalPages": 158
  },
  {
    "page": 114,
    "rows": 2280,
    "totalItems": 3153,
    "totalPages": 158
  },
  {
    "page": 115,
    "rows": 2300,
    "totalItems": 3153,
    "totalPages": 158
  },
  {
    "page": 116,
    "rows": 2320,
    "totalItems": 3153,
    "totalPages": 158
  },
  {
    "page": 117,
    "rows": 2340,
    "totalItems": 3153,
    "totalPages": 158
  },
  {
    "page": 118,
    "rows": 2360,
    "totalItems": 3153,
    "totalPages": 158
  },
  {
    "page": 119,
    "rows": 2380,
    "totalItems": 3153,
    "totalPages": 158
  },
  {
    "page": 120,
    "rows": 2400,
    "totalItems": 3153,
    "totalPages": 158
  },
  {
    "page": 121,
    "rows": 2420,
    "totalItems": 3153,
    "totalPages": 158
  },
  {
    "page": 122,
    "rows": 2440,
    "totalItems": 3153,
    "totalPages": 158
  },
  {
    "page": 123,
    "rows": 2460,
    "totalItems": 3153,
    "totalPages": 158
  },
  {
    "page": 124,
    "rows": 2480,
    "totalItems": 3153,
    "totalPages": 158
  },
  {
    "page": 125,
    "rows": 2500,
    "totalItems": 3153,
    "totalPages": 158
  },
  {
    "page": 126,
    "rows": 2520,
    "totalItems": 3153,
    "totalPages": 158
  },
  {
    "page": 127,
    "rows": 2540,
    "totalItems": 3153,
    "totalPages": 158
  },
  {
    "page": 128,
    "rows": 2560,
    "totalItems": 3153,
    "totalPages": 158
  },
  {
    "page": 129,
    "rows": 2580,
    "totalItems": 3153,
    "totalPages": 158
  },
  {
    "page": 130,
    "rows": 2600,
    "totalItems": 3153,
    "totalPages": 158
  },
  {
    "page": 131,
    "rows": 2620,
    "totalItems": 3153,
    "totalPages": 158
  },
  {
    "page": 132,
    "rows": 2640,
    "totalItems": 3153,
    "totalPages": 158
  },
  {
    "page": 133,
    "rows": 2660,
    "totalItems": 3153,
    "totalPages": 158
  },
  {
    "page": 134,
    "rows": 2680,
    "totalItems": 3153,
    "totalPages": 158
  },
  {
    "page": 135,
    "rows": 2700,
    "totalItems": 3153,
    "totalPages": 158
  },
  {
    "page": 136,
    "rows": 2720,
    "totalItems": 3153,
    "totalPages": 158
  },
  {
    "page": 137,
    "rows": 2740,
    "totalItems": 3153,
    "totalPages": 158
  },
  {
    "page": 138,
    "rows": 2760,
    "totalItems": 3153,
    "totalPages": 158
  },
  {
    "page": 139,
    "rows": 2780,
    "totalItems": 3153,
    "totalPages": 158
  },
  {
    "page": 140,
    "rows": 2800,
    "totalItems": 3153,
    "totalPages": 158
  },
  {
    "page": 141,
    "rows": 2820,
    "totalItems": 3153,
    "totalPages": 158
  },
  {
    "page": 142,
    "rows": 2840,
    "totalItems": 3153,
    "totalPages": 158
  },
  {
    "page": 143,
    "rows": 2860,
    "totalItems": 3153,
    "totalPages": 158
  },
  {
    "page": 144,
    "rows": 2880,
    "totalItems": 3153,
    "totalPages": 158
  },
  {
    "page": 145,
    "rows": 2900,
    "totalItems": 3153,
    "totalPages": 158
  },
  {
    "page": 146,
    "rows": 2920,
    "totalItems": 3153,
    "totalPages": 158
  },
  {
    "page": 147,
    "rows": 2940,
    "totalItems": 3153,
    "totalPages": 158
  },
  {
    "page": 148,
    "rows": 2960,
    "totalItems": 3153,
    "totalPages": 158
  },
  {
    "page": 149,
    "rows": 2980,
    "totalItems": 3153,
    "totalPages": 158
  },
  {
    "page": 150,
    "rows": 3000,
    "totalItems": 3153,
    "totalPages": 158
  },
  {
    "page": 151,
    "rows": 3020,
    "totalItems": 3153,
    "totalPages": 158
  },
  {
    "page": 152,
    "rows": 3040,
    "totalItems": 3153,
    "totalPages": 158
  },
  {
    "page": 153,
    "rows": 3060,
    "totalItems": 3153,
    "totalPages": 158
  },
  {
    "page": 154,
    "rows": 3080,
    "totalItems": 3153,
    "totalPages": 158
  },
  {
    "page": 155,
    "rows": 3100,
    "totalItems": 3153,
    "totalPages": 158
  },
  {
    "page": 156,
    "rows": 3120,
    "totalItems": 3153,
    "totalPages": 158
  },
  {
    "page": 157,
    "rows": 3140,
    "totalItems": 3153,
    "totalPages": 158
  },
  {
    "page": 158,
    "rows": 3153,
    "totalItems": 3153,
    "totalPages": 158
  }
]